\relax 
\providecommand\hyper@newdestlabel[2]{}
\providecommand*{\memsetcounter}[2]{}
\providecommand\HyperFirstAtBeginDocument{\AtBeginDocument}
\HyperFirstAtBeginDocument{\ifx\hyper@anchor\@undefined
\global\let\oldcontentsline\contentsline
\gdef\contentsline#1#2#3#4{\oldcontentsline{#1}{#2}{#3}}
\global\let\oldnewlabel\newlabel
\gdef\newlabel#1#2{\newlabelxx{#1}#2}
\gdef\newlabelxx#1#2#3#4#5#6{\oldnewlabel{#1}{{#2}{#3}}}
\AtEndDocument{\ifx\hyper@anchor\@undefined
\let\contentsline\oldcontentsline
\let\newlabel\oldnewlabel
\fi}
\fi}
\global\let\hyper@last\relax 
\gdef\HyperFirstAtBeginDocument#1{#1}
\providecommand*\HyPL@Entry[1]{}
\HyPL@Entry{0<</S/r>>}
\@writefile{toc}{\changetocdepth  {2}}
\select@language{english}
\@writefile{toc}{\select@language{english}}
\@writefile{lof}{\select@language{english}}
\@writefile{lot}{\select@language{english}}
\HyPL@Entry{1<</S/r>>}
\@writefile{toc}{\contentsline {chapter}{Contents}{i}{section*.1}}
\citation{templeton,cann}
\citation{comingAmerica}
\citation{geneticRoutes,comingAmerica}
\citation{UN}
\HyPL@Entry{3<</S/D>>}
\@writefile{lof}{\addvspace {10pt}}
\@writefile{lot}{\addvspace {10pt}}
\@writefile{toc}{\contentsline {chapter}{\chapternumberline {1}Introduction}{1}{chapter.1}}
\@writefile{loa}{\addvspace {10\p@ }}
\citation{britain}
\@writefile{toc}{\contentsline {section}{\numberline {1.1}Objectives}{2}{section.1.1}}
\citation{verhulst1838,history}
\citation{vogels}
\citation{verhulst1838}
\citation{verhulst1838}
\citation{Kerckhove}
\@writefile{lof}{\addvspace {10pt}}
\@writefile{lot}{\addvspace {10pt}}
\@writefile{toc}{\contentsline {chapter}{\chapternumberline {2}Background}{3}{chapter.2}}
\@writefile{loa}{\addvspace {10\p@ }}
\newlabel{eq:solutionLogistic}{{2.3}{3}{Background}{equation.2.0.3}{}}
\citation{verhulst1838,vogels}
\@writefile{lof}{\contentsline {figure}{\numberline {2.1}{\ignorespaces The populations of Belgium and France according to \cite  {verhulst1838}.The data correspond to the period between 1811 and 1831}}{4}{figure.2.1}}
\newlabel{gfx:logistic}{{\M@TitleReference {2.1}{The populations of Belgium and France according to \cite  {verhulst1838}.The data correspond to the period between 1811 and 1831}}{4}{The populations of Belgium and France according to \cite {verhulst1838}.The data correspond to the period between 1811 and 1831}{figure.2.1}{}}
\@writefile{toc}{\contentsline {section}{\numberline {2.1}Governing Equations}{4}{section.2.1}}
\citation{fisher1937}
\citation{kolmogorov1937}
\citation{Ericksson,SimoneAgentBased,DispersalPatterns,Martino,Flores}
\citation{collective}
\citation{selfPropelled}
\citation{cucker}
\newlabel{eq:FK}{{2.5}{5}{Governing Equations}{equation.2.1.5}{}}
\newlabel{eq:advection}{{2.6}{5}{Governing Equations}{equation.2.1.6}{}}
\citation{Einstein1905}
\citation{Toral2014}
\citation{Einstein1905}
\@writefile{toc}{\contentsline {section}{\numberline {2.2}Brownian Motion}{6}{section.2.2}}
\newlabel{eq:einstein}{{2.9}{6}{Brownian Motion}{equation.2.2.9}{}}
\newlabel{eq:taylorTau}{{2.10}{6}{Brownian Motion}{equation.2.2.10}{}}
\newlabel{eq:taylorDelta}{{2.11}{6}{Brownian Motion}{equation.2.2.11}{}}
\citation{Murray}
\citation{Toral2014}
\citation{Toral2014}
\citation{GuideStochastic}
\citation{vanKampen}
\citation{kloeden1999}
\newlabel{eq:diffusion}{{2.20}{8}{Brownian Motion}{equation.2.2.20}{}}
\@writefile{toc}{\contentsline {section}{\numberline {2.3}Langevin Equation}{8}{section.2.3}}
\@writefile{lof}{\contentsline {figure}{\numberline {2.2}{\ignorespaces Simulation of Brownian Motion in 1D using the Langevin equation. $W_t$ represents the displacement of particles affected by a Wiener process, commonly called Brownian motion}}{9}{figure.2.2}}
\newlabel{gfx:brownianMotion}{{\M@TitleReference {2.2}{Simulation of Brownian Motion in 1D using the Langevin equation. $W_t$ represents the displacement of particles affected by a Wiener process, commonly called Brownian motion}}{9}{Simulation of Brownian Motion in 1D using the Langevin equation. $W_t$ represents the displacement of particles affected by a Wiener process, commonly called Brownian motion}{figure.2.2}{}}
\@writefile{toc}{\contentsline {section}{\numberline {2.4}The Birth and Death Process}{9}{section.2.4}}
\@writefile{toc}{\contentsline {subsection}{\numberline {2.4.1}Death}{9}{subsection.2.4.1}}
\newlabel{eq:death}{{2.23}{9}{Death}{equation.2.4.23}{}}
\citation{Feller}
\citation{vanKampen}
\citation{vanKampen}
\newlabel{def:deathBasic}{{2.24}{10}{Death}{equation.2.4.24}{}}
\@writefile{toc}{\contentsline {subsection}{\numberline {2.4.2}Birth}{10}{subsection.2.4.2}}
\newlabel{eq:birth}{{2.25}{10}{Birth}{equation.2.4.25}{}}
\newlabel{def:birthBasic}{{2.26}{10}{Birth}{equation.2.4.26}{}}
\@writefile{toc}{\contentsline {subsection}{\numberline {2.4.3}The Master Equation}{10}{subsection.2.4.3}}
\newlabel{def:no_changeBasic}{{2.27}{10}{The Master Equation}{equation.2.4.27}{}}
\newlabel{def:n_probabilityBasic}{{2.29}{11}{The Master Equation}{equation.2.4.29}{}}
\newlabel{eq:prev_masterBasic}{{2.30}{11}{The Master Equation}{equation.2.4.30}{}}
\newlabel{eq:derivativeBasic}{{2.31}{11}{The Master Equation}{equation.2.4.31}{}}
\@writefile{toc}{\contentsline {subsection}{\numberline {2.4.4}Fokker-Plank Equation}{11}{subsection.2.4.4}}
\newlabel{eq:fokkerPlank}{{2.32}{11}{Fokker-Plank Equation}{equation.2.4.32}{}}
\newlabel{eq:ito}{{2.33}{11}{Fokker-Plank Equation}{equation.2.4.33}{}}
\newlabel{eq:expectations}{{2.38}{12}{Fokker-Plank Equation}{equation.2.4.38}{}}
\citation{nisbet}
\citation{ito}
\citation{kloeden1999}
\newlabel{eq:fokker}{{2.43}{13}{Fokker-Plank Equation}{equation.2.4.43}{}}
\newlabel{eq:itoRep}{{2.44}{13}{Fokker-Plank Equation}{equation.2.4.44}{}}
\citation{conlon}
\citation{Bailey}
\citation{Toral2014}
\@writefile{toc}{\contentsline {section}{\numberline {2.5}Generating Functions}{14}{section.2.5}}
\citation{Bailey1964}
\citation{Bailey1964}
\@writefile{toc}{\contentsline {subsubsection}{Simple birth-and-death process}{15}{section*.2}}
\@writefile{toc}{\contentsline {subsubsection}{Birth-and-death process with immigration}{15}{section*.3}}
\citation{Bailey}
\citation{Bailey}
\citation{numericalRecipes}
\citation{gillespie}
\citation{GuideStochastic,erbanStochastic}
\@writefile{toc}{\contentsline {section}{\numberline {2.6}Gillespie Algorithm}{16}{section.2.6}}
\citation{kolmogorov1937}
\citation{kolmogorov1937}
\citation{kolmogorov1937}
\citation{ablowitz}
\citation{danilov}
\citation{handbook2003}
\@writefile{thm}{\contentsline {algo}{{Algorithm}{1}{}}{17}{algo.1}}
\newlabel{alg:gillespie}{{\M@TitleReference {1}{Gillespie Algorithm}}{17}{Gillespie Algorithm}{algo.1}{}}
\global\def\markialgo{\ensuremath {\square }}
\@writefile{toc}{\contentsline {section}{\numberline {2.7}Analytical Solutions}{17}{section.2.7}}
\newlabel{eq:kolmogorov}{{2.63}{17}{Analytical Solutions}{equation.2.7.63}{}}
\@writefile{lof}{\contentsline {figure}{\numberline {2.3}{\ignorespaces Gillespie simulation for stochastic logistic growth with 100 particles}}{18}{figure.2.3}}
\newlabel{gfx:gillespieLogistic}{{\M@TitleReference {2.3}{Gillespie simulation for stochastic logistic growth with 100 particles}}{18}{Gillespie simulation for stochastic logistic growth with 100 particles}{figure.2.3}{}}
\@writefile{toc}{\contentsline {section}{\numberline {2.8}Numerical Schemes}{18}{section.2.8}}
\@writefile{toc}{\contentsline {subsection}{\numberline {2.8.1}Operator Splitting}{18}{subsection.2.8.1}}
\citation{numericalHydrodynamics}
\citation{godunov1987}
\citation{strang1968}
\citation{godunov1987}
\@writefile{lof}{\contentsline {figure}{\numberline {2.4}{\ignorespaces Phase plot diagram shows the transition from saddle to stable pole}}{19}{figure.2.4}}
\newlabel{gfx:PhaseMap}{{\M@TitleReference {2.4}{Phase plot diagram shows the transition from saddle to stable pole}}{19}{Phase plot diagram shows the transition from saddle to stable pole}{figure.2.4}{}}
\citation{strang1968}
\citation{marchuk1968}
\citation{godunov1987}
\@writefile{toc}{\contentsline {subsubsection}{Godunov Splitting}{20}{section*.4}}
\citation{ADI}
\citation{strangMacNamara}
\citation{golub}
\citation{marchuk1968,strang1968}
\citation{numericalRecipes}
\@writefile{toc}{\contentsline {subsubsection}{Strang Splitting}{22}{section*.5}}
\@writefile{toc}{\contentsline {subsubsection}{General Operator Splitting}{22}{section*.6}}
\citation{yoshida1990}
\citation{harrier}
\citation{wikiwaves}
\@writefile{toc}{\contentsline {subsubsection}{Symplectic Integrators}{23}{section*.7}}
\@writefile{toc}{\contentsline {subsubsection}{Fourier Solver}{24}{section*.8}}
\newlabel{eq:fourier}{{2.98}{25}{Fourier Solver}{equation.2.8.98}{}}
\citation{lax}
\citation{menschen}
\citation{menschen}
\citation{bristol}
\@writefile{lof}{\addvspace {10pt}}
\@writefile{lot}{\addvspace {10pt}}
\@writefile{toc}{\contentsline {chapter}{\chapternumberline {3}Methods}{26}{chapter.3}}
\@writefile{loa}{\addvspace {10\p@ }}
\newlabel{ch:methods}{{\M@TitleReference {3}{Methods}}{26}{Methods}{chapter.3}{}}
\@writefile{lof}{\contentsline {figure}{\numberline {3.1}{\ignorespaces Arrival times of modern humans according to \cite  {menschen}}}{27}{figure.3.1}}
\newlabel{gfx:arrival}{{\M@TitleReference {3.1}{Arrival times of modern humans according to \cite  {menschen}}}{27}{Arrival times of modern humans according to \cite {menschen}}{figure.3.1}{}}
\citation{strang1968}
\@writefile{toc}{\contentsline {section}{\numberline {3.1}Godunov Solver 1D}{28}{section.3.1}}
\newlabel{eq:estimate}{{3.4}{28}{Godunov Solver 1D}{equation.3.1.4}{}}
\newlabel{eq:trapezoidal}{{3.5}{28}{Godunov Solver 1D}{equation.3.1.5}{}}
\@writefile{lof}{\contentsline {figure}{\numberline {3.2}{\ignorespaces Dirichlet boundary conditions}}{29}{figure.3.2}}
\newlabel{gfx:dirichletFloor}{{\M@TitleReference {3.2}{Dirichlet boundary conditions}}{29}{Dirichlet boundary conditions}{figure.3.2}{}}
\@writefile{toc}{\contentsline {subsection}{\numberline {3.1.1}Boundary conditions}{29}{subsection.3.1.1}}
\@writefile{toc}{\contentsline {subsubsection}{Dirichlet}{29}{section*.9}}
\citation{leveque}
\newlabel{eq:tridiagDirichlet}{{3.8}{30}{Dirichlet}{equation.3.1.8}{}}
\@writefile{toc}{\contentsline {subsubsection}{Neumann}{30}{section*.10}}
\citation{leveque}
\newlabel{eq:neumann}{{3.14}{31}{Neumann}{equation.3.1.14}{}}
\newlabel{eq:neumann}{{3.21}{32}{Neumann}{equation.3.1.21}{}}
\newlabel{eq:estimate}{{3.23}{33}{Neumann}{equation.3.1.23}{}}
\newlabel{eq:tridiagNeumann}{{3.25}{33}{Neumann}{equation.3.1.25}{}}
\@writefile{toc}{\contentsline {subsection}{\numberline {3.1.2}Tridiagonal Solvers}{33}{subsection.3.1.2}}
\@writefile{lof}{\contentsline {figure}{\numberline {3.3}{\ignorespaces Neumann boundary conditions}}{34}{figure.3.3}}
\newlabel{gfx:neumannFloor1}{{\M@TitleReference {3.3}{Neumann boundary conditions}}{34}{Neumann boundary conditions}{figure.3.3}{}}
\@writefile{lof}{\contentsline {figure}{\numberline {3.4}{\ignorespaces Neumann boundary conditions}}{35}{figure.3.4}}
\newlabel{gfx:neumannFloor2}{{\M@TitleReference {3.4}{Neumann boundary conditions}}{35}{Neumann boundary conditions}{figure.3.4}{}}
\citation{numericalRecipes}
\@writefile{toc}{\contentsline {section}{\numberline {3.2}Godunov Solver 2D}{36}{section.3.2}}
\citation{bristol}
\@writefile{toc}{\contentsline {subsection}{\numberline {3.2.1}Time Dependencies}{37}{subsection.3.2.1}}
\@writefile{toc}{\contentsline {subsubsection}{Carrying capacities}{37}{section*.11}}
\@writefile{toc}{\contentsline {subsubsection}{Sea-Level}{38}{section*.12}}
\@writefile{toc}{\contentsline {subsection}{\numberline {3.2.2}Smoothing}{38}{subsection.3.2.2}}
\@writefile{toc}{\contentsline {section}{\numberline {3.3}Parallelization}{38}{section.3.3}}
\@writefile{toc}{\contentsline {section}{\numberline {3.4}Optimization}{38}{section.3.4}}
\@writefile{lof}{\contentsline {figure}{\numberline {3.5}{\ignorespaces Sigmoid function to interpolate carrying capacities}}{39}{figure.3.5}}
\newlabel{gfx:sigmoid}{{\M@TitleReference {3.5}{Sigmoid function to interpolate carrying capacities}}{39}{Sigmoid function to interpolate carrying capacities}{figure.3.5}{}}
\@writefile{loa}{\contentsline {algocf}{\numberline {1}{\ignorespaces 1D Godunov Solver}}{39}{algocf.1}}
\@writefile{lof}{\contentsline {figure}{\numberline {3.6}{\ignorespaces Kernel smoother employed to smooth carrying capacities}}{40}{figure.3.6}}
\newlabel{gfx:kernel}{{\M@TitleReference {3.6}{Kernel smoother employed to smooth carrying capacities}}{40}{Kernel smoother employed to smooth carrying capacities}{figure.3.6}{}}
\citation{ablowitz}
\@writefile{lof}{\addvspace {10pt}}
\@writefile{lot}{\addvspace {10pt}}
\@writefile{toc}{\contentsline {chapter}{\chapternumberline {4}Results}{41}{chapter.4}}
\@writefile{loa}{\addvspace {10\p@ }}
\@writefile{toc}{\contentsline {section}{\numberline {4.1}1D Solver}{41}{section.4.1}}
\@writefile{toc}{\contentsline {section}{\numberline {4.2}Optimization}{41}{section.4.2}}
\@writefile{toc}{\contentsline {section}{\numberline {4.3}2D Solver}{41}{section.4.3}}
\@writefile{toc}{\contentsline {section}{\numberline {4.4}Stability and Oscillations}{41}{section.4.4}}
\@writefile{lof}{\contentsline {figure}{\numberline {4.1}{\ignorespaces Comparison of runtime of 1D simulations with Dirichlet boundary conditions}}{42}{figure.4.1}}
\newlabel{gfx:runtime}{{\M@TitleReference {4.1}{Comparison of runtime of 1D simulations with Dirichlet boundary conditions}}{42}{Comparison of runtime of 1D simulations with Dirichlet boundary conditions}{figure.4.1}{}}
\@writefile{toc}{\contentsline {subsection}{\numberline {4.4.1}HDF5 Data}{42}{subsection.4.4.1}}
\@writefile{toc}{\contentsline {section}{\numberline {4.5}Parallelization}{42}{section.4.5}}
\@writefile{lof}{\contentsline {figure}{\numberline {4.2}{\ignorespaces Comparison of serial performance of implemantaions of 1D godunov solvers}}{43}{figure.4.2}}
\newlabel{gfx:serialPerformance}{{\M@TitleReference {4.2}{Comparison of serial performance of implemantaions of 1D godunov solvers}}{43}{Comparison of serial performance of implemantaions of 1D godunov solvers}{figure.4.2}{}}
\@writefile{lof}{\contentsline {figure}{\numberline {4.3}{\ignorespaces Comparison of 1D simulations with Dirichlet boundary conditions}}{44}{figure.4.3}}
\newlabel{gfx:1Ddirichlet}{{\M@TitleReference {4.3}{Comparison of 1D simulations with Dirichlet boundary conditions}}{44}{Comparison of 1D simulations with Dirichlet boundary conditions}{figure.4.3}{}}
\@writefile{lof}{\contentsline {figure}{\numberline {4.4}{\ignorespaces Comparison of 1D simulations with Neumann boundary conditions}}{45}{figure.4.4}}
\newlabel{gfx:1Dneumann}{{\M@TitleReference {4.4}{Comparison of 1D simulations with Neumann boundary conditions}}{45}{Comparison of 1D simulations with Neumann boundary conditions}{figure.4.4}{}}
\@writefile{lof}{\contentsline {figure}{\numberline {4.5}{\ignorespaces Global scale simulation with Dirichlet boundary conditions on coast lines}}{46}{figure.4.5}}
\newlabel{gfx:2Ddirichlet}{{\M@TitleReference {4.5}{Global scale simulation with Dirichlet boundary conditions on coast lines}}{46}{Global scale simulation with Dirichlet boundary conditions on coast lines}{figure.4.5}{}}
\@writefile{lof}{\contentsline {figure}{\numberline {4.6}{\ignorespaces Global scale simulation with Neumann boundary conditions on coast lines}}{47}{figure.4.6}}
\newlabel{gfx:2Dneumann}{{\M@TitleReference {4.6}{Global scale simulation with Neumann boundary conditions on coast lines}}{47}{Global scale simulation with Neumann boundary conditions on coast lines}{figure.4.6}{}}
\@writefile{lof}{\contentsline {figure}{\numberline {4.7}{\ignorespaces Serial optimization of 2D solver}}{48}{figure.4.7}}
\newlabel{gfx:optimization}{{\M@TitleReference {4.7}{Serial optimization of 2D solver}}{48}{Serial optimization of 2D solver}{figure.4.7}{}}
\@writefile{lof}{\contentsline {figure}{\numberline {4.8}{\ignorespaces Plot showing the speed up and number of processes for a 2D solver}}{49}{figure.4.8}}
\newlabel{gfx:scaling}{{\M@TitleReference {4.8}{Plot showing the speed up and number of processes for a 2D solver}}{49}{Plot showing the speed up and number of processes for a 2D solver}{figure.4.8}{}}
\@writefile{lof}{\addvspace {10pt}}
\@writefile{lot}{\addvspace {10pt}}
\@writefile{toc}{\contentsline {chapter}{\chapternumberline {5}Conclusions}{50}{chapter.5}}
\@writefile{loa}{\addvspace {10\p@ }}
\@writefile{lof}{\addvspace {10pt}}
\@writefile{lot}{\addvspace {10pt}}
\@writefile{toc}{\contentsline {chapter}{\chapternumberline {6}Appendix A: Algorithms}{51}{chapter.6}}
\@writefile{loa}{\addvspace {10\p@ }}
\@writefile{thm}{\contentsline {algo}{{Algorithm}{2}{}}{51}{algo.2}}
\newlabel{alg:Godunov2D}{{\M@TitleReference {2}{Appendix A: Algorithms}}{51}{Appendix A: Algorithms}{algo.2}{}}
\global\def\markiialgo{\ensuremath {\square }}
\@writefile{thm}{\contentsline {algo}{{Algorithm}{3}{}}{52}{algo.3}}
\newlabel{alg:Godunov2DBcast}{{\M@TitleReference {3}{Appendix A: Algorithms}}{52}{Appendix A: Algorithms}{algo.3}{}}
\global\def\markiiialgo{\ensuremath {\square }}
\@writefile{thm}{\contentsline {algo}{{Algorithm}{4}{}}{53}{algo.4}}
\newlabel{alg:Godunov2DScatter}{{\M@TitleReference {4}{Appendix A: Algorithms}}{53}{Appendix A: Algorithms}{algo.4}{}}
\global\def\markivalgo{\ensuremath {\square }}
\citation{ablowitz}
\citation{kolmogorov1937}
\citation{mcKean}
\@writefile{lof}{\addvspace {10pt}}
\@writefile{lot}{\addvspace {10pt}}
\@writefile{toc}{\contentsline {chapter}{\chapternumberline {7}Appendix B: Analytical Solution}{56}{chapter.7}}
\@writefile{loa}{\addvspace {10\p@ }}
\newlabel{KPP}{{7.1}{56}{Appendix B: Analytical Solution}{equation.7.0.1}{}}
\newlabel{eq:wave}{{7.2}{56}{Appendix B: Analytical Solution}{equation.7.0.2}{}}
\newlabel{eq:series}{{7.4}{57}{Appendix B: Analytical Solution}{equation.7.0.4}{}}
\citation{ablowitz}
\newlabel{eq:solution}{{7.9}{58}{Appendix B: Analytical Solution}{equation.7.0.9}{}}
\newlabel{eq:solutionn}{{7.10}{58}{Appendix B: Analytical Solution}{equation.7.0.10}{}}
\newlabel{eq:recursion}{{7.11}{58}{Appendix B: Analytical Solution}{equation.7.0.11}{}}
\bibstyle{apacite}
\bibdata{refs}
\@writefile{lof}{\addvspace {10pt}}
\@writefile{lot}{\addvspace {10pt}}
\@writefile{toc}{\contentsline {chapter}{\chapternumberline {8}Appendix C: Time Line}{60}{chapter.8}}
\@writefile{loa}{\addvspace {10\p@ }}
\bibcite{ablowitz}{{1}{{\APACyear {1979}}}{{Ablowitz\ \BBA  {} Zeppetella}}{{Ablowitz\ \BBA  {} Zeppetella}}}
\bibcite{history}{{2}{{\APACyear {2011}}}{{Baca\IeC {\"e}r}}{{Baca\IeC {\"e}r}}}
\bibcite{Bailey}{{3}{{\APACyear {1968}}}{{N\BPBI  T.~Bailey}}{{N\BPBI  T.~Bailey}}}
\bibcite{Bailey1964}{{4}{{\APACyear {1964}}}{{N\BPBI  T\BPBI  J.~Bailey}}{{N\BPBI  T\BPBI  J.~Bailey}}}
\bibcite{menschen}{{5}{{\APACyear {{\bibnodate {}}}}}{{Burenhult}}{{Burenhult}}}
\bibcite{SimoneAgentBased}{{6}{{\APACyear {2013}}}{{Callegari\ \BOthers {.}}}{{Callegari\ \BOthers {.}}}}
\bibcite{geneticRoutes}{{7}{{\APACyear {2002}}}{{Cann}}{{Cann}}}
\bibcite{cann}{{8}{{\APACyear {1987}}}{{Cann\ \BOthers {.}}}{{Cann, Stoneking,{}\ \BBA  {} Wilson}}}
\bibcite{conlon}{{9}{{\APACyear {2005}}}{{Conlon\ \BBA  {} Doering}}{{Conlon\ \BBA  {} Doering}}}
\@writefile{toc}{\contentsline {chapter}{References}{61}{section*.14}}
\bibcite{cucker}{{10}{{\APACyear {2007}}}{{Cucker\ \BBA  {} Smale}}{{Cucker\ \BBA  {} Smale}}}
\bibcite{comingAmerica}{{11}{{\APACyear {2012}}}{{Curry}}{{Curry}}}
\bibcite{danilov}{{12}{{\APACyear {2012}}}{{Danilov\ \BOthers {.}}}{{Danilov, Maslov,{}\ \BBA  {} Volosov}}}
\bibcite{Einstein1905}{{13}{{\APACyear {1905}}}{{Einstein}}{{Einstein}}}
\bibcite{GuideStochastic}{{14}{{\APACyear {2007}}}{{Erban\ \BOthers {.}}}{{Erban, Chapman,{}\ \BBA  {} Maini}}}
\bibcite{erbanStochastic}{{15}{{\APACyear {2009}}}{{Erban\ \BBA  {} Chapman}}{{Erban\ \BBA  {} Chapman}}}
\bibcite{Ericksson}{{16}{{\APACyear {2012}}}{{Eriksson\ \BOthers {.}}}{{Eriksson\ \BOthers {.}}}}
\bibcite{Feller}{{17}{{\APACyear {1950}}}{{Feller}}{{Feller}}}
\bibcite{fisher1937}{{18}{{\APACyear {1937}}}{{Fisher}}{{Fisher}}}
\bibcite{Flores}{{19}{{\APACyear {2013}}}{{Flores}}{{Flores}}}
\bibcite{gillespie}{{20}{{\APACyear {1976}}}{{Gillespie}}{{Gillespie}}}
\bibcite{godunov1987}{{21}{{\APACyear {1987}}}{{Godunov\ \BBA  {} Ryabenkii}}{{Godunov\ \BBA  {} Ryabenkii}}}
\bibcite{golub}{{22}{{\APACyear {1996}}}{{Golub\ \BBA  {} Van~Loan}}{{Golub\ \BBA  {} Van~Loan}}}
\bibcite{DispersalPatterns}{{23}{{\APACyear {2007}}}{{Hughes\ \BOthers {.}}}{{Hughes, Haywood, Mithen, Sellwood,{}\ \BBA  {} Valdes}}}
\bibcite{ito}{{24}{{\APACyear {1944}}}{{It{\^o}}}{{It{\^o}}}}
\bibcite{vanKampen}{{25}{{\APACyear {2007}}}{{Kampen}}{{Kampen}}}
\bibcite{Kerckhove}{{26}{{\APACyear {2012}}}{{Kerckhove}}{{Kerckhove}}}
\bibcite{kloeden1999}{{27}{{\APACyear {1999}}}{{Kloeden\ \BBA  {} Platen}}{{Kloeden\ \BBA  {} Platen}}}
\bibcite{kolmogorov1937}{{28}{{\APACyear {1937}}}{{Kolmogorov\ \BOthers {.}}}{{Kolmogorov, Petrovsky,{}\ \BBA  {} Piskunov}}}
\bibcite{lax}{{29}{{\APACyear {1956}}}{{Lax\ \BBA  {} Richtmyer}}{{Lax\ \BBA  {} Richtmyer}}}
\bibcite{britain}{{30}{{\APACyear {2015}}}{{Leslie\ \BOthers {.}}}{{Leslie\ \BOthers {.}}}}
\bibcite{leveque}{{31}{{\APACyear {2007}}}{{LeVeque}}{{LeVeque}}}
\bibcite{marchuk1968}{{32}{{\APACyear {1968}}}{{Marchuk}}{{Marchuk}}}
\bibcite{Martino}{{33}{{\APACyear {2007}}}{{Martino\ \BOthers {.}}}{{Martino, Osella, Dorso,{}\ \BBA  {} Lanata}}}
\bibcite{wikiwaves}{{34}{{\APACyear {2010}}}{{Meylan}}{{Meylan}}}
\bibcite{Murray}{{35}{{\APACyear {2002}}}{{Murray}}{{Murray}}}
\bibcite{collective}{{36}{{\APACyear {2010}}}{{Naldi\ \BOthers {.}}}{{Naldi, Pareschi,{}\ \BBA  {} Toscani}}}
\bibcite{nisbet}{{37}{{\APACyear {1982}}}{{Nisbet\ \BBA  {} Gurney}}{{Nisbet\ \BBA  {} Gurney}}}
\bibcite{ADI}{{38}{{\APACyear {1955}}}{{Peaceman\ \BBA  {} Rachford}}{{Peaceman\ \BBA  {} Rachford}}}
\bibcite{numericalHydrodynamics}{{39}{{\APACyear {2005}}}{{Piskunov\ \BBA  {} Freytag}}{{Piskunov\ \BBA  {} Freytag}}}
\bibcite{handbook2003}{{40}{{\APACyear {2003}}}{{Polyanin\ \BBA  {} Zaitsev}}{{Polyanin\ \BBA  {} Zaitsev}}}
\bibcite{numericalRecipes}{{41}{{\APACyear {2007}}}{{Press}}{{Press}}}
\bibcite{strang1968}{{42}{{\APACyear {1968}}}{{Strang}}{{Strang}}}
\bibcite{strangMacNamara}{{43}{{\APACyear {{\bibnodate {}}}}}{{Strang\ \BBA  {} MacNamara}}{{Strang\ \BBA  {} MacNamara}}}
\bibcite{templeton}{{44}{{\APACyear {2002}}}{{Templeton}}{{Templeton}}}
\bibcite{Toral2014}{{45}{{\APACyear {2014}}}{{Toral\ \BBA  {} Colet}}{{Toral\ \BBA  {} Colet}}}
\bibcite{UN}{{46}{{\APACyear {2015}}}{{{United Nations}}}{{{United Nations}}}}
\bibcite{bristol}{{47}{{\APACyear {2012}}}{{{University of Bristol}}}{{{University of Bristol}}}}
\bibcite{verhulst1838}{{48}{{\APACyear {1838}}}{{Verhulst}}{{Verhulst}}}
\bibcite{vogels}{{49}{{\APACyear {1975}}}{{Vogels\ \BOthers {.}}}{{Vogels, Zoeckler, Stasiw,{}\ \BBA  {} Cerny}}}
\bibcite{yoshida1990}{{50}{{\APACyear {1990}}}{{Yoshida}}{{Yoshida}}}
\memsetcounter{lastsheet}{67}
\memsetcounter{lastpage}{64}
