This is BibTeX, Version 0.99d (TeX Live 2014)
Capacity: max_strings=35307, hash_size=35307, hash_prime=30011
The top-level auxiliary file: thesis.aux
The style file: apacite.bst
Reallocated glb_str_ptr (elt_size=4) to 20 items from 10.
Reallocated global_strs (elt_size=20001) to 20 items from 10.
Reallocated glb_str_end (elt_size=4) to 20 items from 10.
Reallocated singl_function (elt_size=4) to 100 items from 50.
Reallocated wiz_functions (elt_size=4) to 6000 items from 3000.
Reallocated singl_function (elt_size=4) to 100 items from 50.
Reallocated singl_function (elt_size=4) to 100 items from 50.
Reallocated wiz_functions (elt_size=4) to 9000 items from 6000.
Reallocated singl_function (elt_size=4) to 100 items from 50.
Database file #1: refs.bib
Warning--I didn't find a database entry for "selfPropelled"
Warning--I didn't find a database entry for "harrier"
Warning--I didn't find a database entry for "mcKean"
apacite.bst [2013/07/21 v6.03 APA bibliography style]
You've used 50 entries,
            6951 wiz_defined-function locations,
            1632 strings with 20096 characters,
and the built_in function-call counts, 94141 in all, are:
= -- 11568
> -- 704
< -- 4598
+ -- 4764
- -- 104
* -- 6184
:= -- 17486
add.period$ -- 200
call.type$ -- 50
change.case$ -- 825
chr.to.int$ -- 0
cite$ -- 100
duplicate$ -- 2549
empty$ -- 3789
format.name$ -- 1160
if$ -- 17817
int.to.chr$ -- 0
int.to.str$ -- 150
missing$ -- 0
newline$ -- 1273
num.names$ -- 400
pop$ -- 1644
preamble$ -- 1
purify$ -- 198
quote$ -- 0
skip$ -- 5736
stack$ -- 0
substring$ -- 5207
swap$ -- 1548
text.length$ -- 111
text.prefix$ -- 0
top$ -- 1
type$ -- 4064
warning$ -- 0
while$ -- 393
width$ -- 0
write$ -- 1517
(There were 3 warnings)
